1,STREET 4,700,-1,L2M2P3
2,STREET 6,420,-1,L3M2P3
3,STREET 9,450,-1,L9M4P2
4,STREET 5,490,-1,G5H6P1
5,STREET 9,560,-1,P4C4H4
6,STREET 4,120,-1,P5G6H9
7,STREET 2,900,-1,Z6L4B2
8,STREET 1,420,-1,Z5V1B2 